﻿{
  "DataSource": "Data Source=.;Initial Catalog=Xoolit.Microservices.Accounts;Integrated Security=True",
  "EndpointName": "Xoolit.Microservices.Accounts",
  "ErrorQueue": "Xoolit.Microservices.Accounts.Error",
  "PersistanceConnectionString": "Data Source=.;Initial Catalog=Xoolit.Microservices.Accounts;Integrated Security=True",
  "InvalidateSessionsJobTimeout": "	0 0/1 * 1/1 * ? *",
  "InvalidateSessionsTimeout": "60",
  "InitialAccountRating" : "1"
}