﻿{
  "DataSource": "Data Source=.;Initial Catalog=Xoolit.Microservices.Accounts;Integrated Security=True",
  "EndpointName": "Microservices - Security",
  "EndpointVersion": "1",
  "LoginPageUrl": "Data Source=.;Initial Catalog=Xoolit.Microservices.Security;Integrated Security=True"
}